<(a,M0,39),(f,M1,3)>
<(b,M0,39),(z,M1,3)>
<(i,M4,28),(f,M1,3)>
<(B::t,M4,28),(z,M1,3)>
<(x,M1,6),(m,M2,10)>
<(y,M1,6),(n,M2,10)>
<(h,M1,7),(a,M3,18)>
<(A::g,M1,7),(b,M3,18)>
<(this,M2,14),(q,M5,32)>

<(s,M1,9),(s,M0,41)>
<(x,M4,30),(d,M0,42)>
<(j,M3,23),(r,M1,7)>
<(b,M5,36),(b,M2,14)>

<(a,M0,39), (a,M0,41)>
<(b,M0,39), (b,M0,41)>
<(s,M0,41),(u,M0,43)>
<(d,M0,42),(u,M0,43)>
<(f,M1,3),(x,M1,4)>
<(z,M1,3),(x,M1,4)>
<(x,M1,4),(cv,M1,5)>
<(y,M1,4),(cv,M1,5)>
<(x,M1,4),(x,M1,6)>
<(y,M1,4),(y,M1,6)>
<(r,M1,7), (s,M1,8)>
<(s,M1,8), (s,M1,9)>
<(A.d,M2,11),(t,M2,11)>
<(m,M2,10),(t,M2,11)>
<(t,M2,11),(cv,M2,12)>
<(t,M2,11),(n,M2,13)>
<(A::g,M2,13),(n,M2,13)>
<(a,M3,18),(cv,M3,21)>
<(b,M3,18),(cv,M3,21)>
<(a,M3,18),(j,M3,22)>
<(b,M3,18),(j,M3,22)>
<(j,M3,22), (j,M3,23)>
<(A::g,M4,25),(x,M4,25)>
<(A::g,M4,27),(x,M4,25)>
<(x,M4,23),(A::g,M4,27)>
<(i,M4,25), (A::g,M4,27)>
<(B::t,M4,27), (A::g,M4,27)>
<(A.d,M5,33),(y,M5,33)>
<(A.d,M5,35),(y,M5,33)>
<(B::t,M5,34),(b,M5,34)>
<(y,M5,33),(b,M5,34)>
<(b,M5,34),(b,M5,36)>

<(B::t,M3,20),(B::t,M5,34)>
<(B::t,M3,20),(B::t,M4,27)>
<(B::t,M3,20),(B::t,M4,28)>
<(A::g,M4,27),(A::g,M2,13)>

<(A.d,M5,35),(A.d,M2,11)>


<(cv,M1,5), (cn,M1,6)>
<(cv,M2,12), (n,M2,13)>
<(cv,M3,21), (j,M3,22)>

<(i,M4,25), (A::g,M4,27)>
<(A::g, M4, 27, cn, M4,28)>


<(cv,M1,5), (t,M2,11)>
<(cv,M1,5), (cv,M2,12)>
<(cv,M1,5), (b,M2,14)>
<(cv,M1,5), (cn,M2,15)>
<(cv,M1,5), (y,M5,33)>
<(cv,M1,5), (b, M5, 34)>
<(cv,M1,5), (A.d,M5,35)>
<(cv,M1,5), (b, M5, 36)>
